advancedR_learning
…
## # A tibble: 7 x 4
##   generic class      visible source             
##   <chr>   <chr>      <lgl>   <chr>              
## 1 mean    Date       TRUE    base               
## 2 mean    default    TRUE    base               
## 3 mean    difftime   TRUE    base               
## 4 mean    POSIXct    TRUE    base               
## 5 mean    POSIXlt    TRUE    base               
## 6 mean    quosure    FALSE   registered S3method
## 7 mean    vctrs_vctr FALSE   registered S3method

s3_methods_generic("print")

## # A tibble: 330 x 4
##    generic class       visible source             
##    <chr>   <chr>       <lgl>   <chr>              
##  1 print   acf         FALSE   registered S3method
##  2 print   AES         FALSE   registered S3method
##  3 print   all_vars    FALSE   registered S3method
##  4 print   anova       FALSE   registered S3method
##  5 print   ansi_string FALSE   registered S3method
##  6 print   ansi_style  FALSE   registered S3method
##  7 print   any_vars    FALSE   registered S3method
##  8 print   aov         FALSE   registered S3method
##  9 print   aovlist     FALSE   registered S3method
## 10 print   ar          FALSE   registered S3method
## #  with 320 more rows
…
